16 Transponieren: Daten formen – Einführung in die Datenwissenschaft mit R
…
# Transponieren in die Vektorform
(schweizerStaedte |>
    pivot_longer(- c(Ort, Gesamt)) ->
        schweizerStaedteLang)

# A tibble: 40 × 4
   Ort         Gesamt name   value
   <chr>        <dbl> <chr>  <dbl>
 1 Winterthur  118681 S_M    57832
 2 Winterthur  118681 S_F    59074
 3 Winterthur  118681 N_M      817
 4 Winterthur  118681 N_F      958
 5 Zürich      435319 S_M   214943
 6 Zürich      435319 S_F   212778
 7 Zürich      435319 N_M     3858
 8 Zürich      435319 N_F     3740
 9 Biel/Bienne  55600 S_M    27243
10 Biel/Bienne  55600 S_F    27827
# ℹ 30 more rows
…
# Ursprüngliche Daten einlesen
(abDaten = read_csv2("data_ab_semi.csv")) 

ℹ Using "','" as decimal and "'.'" as grouping mark. Use `read_delim()` for more control.

Rows: 136 Columns: 4
── Column specification ────────────────────────────────────────────────────────
Delimiter: ";"
chr (1): Angebot
dbl (3): Punkte, Interesse, Bedeutung

ℹ Use `spec()` to retrieve the full column specification for this data.
ℹ Specify the column types or set `show_col_types = FALSE` to quiet this message.

# A tibble: 136 × 4
   Punkte Angebot Interesse Bedeutung
    <dbl> <chr>       <dbl>     <dbl>
 1   207. B               5         5
 2   101. A               2         3
 3   312. A               5         5
 4   242. B               3         2
 5   256. A               2         2
 6   188. B               6         2
 7   343. B               3         6
 8   202. A               5         5
 9   175. A               3         3
10   213. B               3         2
# ℹ 126 more rows

# Daten transponieren
abDaten |> 
    pivot_wider(names_from = Angebot, values_from = Punkte)

Warning: Values from `Punkte` are not uniquely identified; output will contain
list-cols.
• Use `values_fn = list` to suppress this warning.
• Use `values_fn = {summary_fun}` to summarise duplicates.
• Use the following dplyr code to identify duplicates.
  {data} |>
  dplyr::summarise(n = dplyr::n(), .by = c(Interesse, Bedeutung, Angebot)) |>
  dplyr::filter(n > 1L)

# A tibble: 31 × 4
   Interesse Bedeutung B         A        
       <dbl>     <dbl> <list>    <list>   
 1         5         5 <dbl [4]> <dbl [4]>
 2         2         3 <dbl [4]> <dbl [4]>
 3         3         2 <dbl [6]> <dbl [2]>
 4         2         2 <dbl [1]> <dbl [6]>
 5         6         2 <dbl [2]> <NULL>   
 6         3         6 <dbl [4]> <dbl [3]>
 7         3         3 <dbl [8]> <dbl [2]>
 8         2         4 <dbl [2]> <dbl [2]>
 9         4         2 <dbl [2]> <dbl [2]>
10         5         6 <dbl [1]> <dbl [1]>
# ℹ 21 more rows
…
