Einführung in die Datenwissenschaft mit R - 14 Indizieren und Gruppieren
…
Die Leistungsklassen werden durch Kodieren den oben festgelegten Klassen zugewiesen und im Vektor klasse gespeichert.

mtcars_df |> 
    mutate(
        verhaeltnis = hp/wt, 
        klasse = case_when( 
            verhaeltnis > 60 ~ "sehr stark",
            verhaeltnis > 50 ~ "stark", 
            verhaeltnis > 40 ~ "mittel", 
            TRUE ~ "schwach") 
    ) |>
    # nur die relevanten Vektoren zeigen
    select(modell, hp, wt, verhaeltnis, klasse)

# A tibble: 32 × 5
   modell               hp    wt verhaeltnis klasse    
   <chr>             <dbl> <dbl>       <dbl> <chr>     
 1 Mazda RX4           110  2.62        42.0 mittel    
 2 Mazda RX4 Wag       110  2.88        38.3 schwach   
 3 Datsun 710           93  2.32        40.1 mittel    
 4 Hornet 4 Drive      110  3.22        34.2 schwach   
 5 Hornet Sportabout   175  3.44        50.9 stark     
 6 Valiant             105  3.46        30.3 schwach   
 7 Duster 360          245  3.57        68.6 sehr stark
 8 Merc 240D            62  3.19        19.4 schwach   
 9 Merc 230             95  3.15        30.2 schwach   
10 Merc 280            123  3.44        35.8 schwach   
# ℹ 22 more rows
…
